%YAML 1.1
%TAG !u! tag:unity3d.com,2011:
--- !u!114 &11400000
MonoBehaviour:
  m_ObjectHideFlags: 0
  m_CorrespondingSourceObject: {fileID: 0}
  m_PrefabInstance: {fileID: 0}
  m_PrefabAsset: {fileID: 0}
  m_GameObject: {fileID: 0}
  m_Enabled: 1
  m_EditorHideFlags: 0
  m_Script: {fileID: 11500000, guid: 2e5b0a05dcd882d4da9d8d54d7111644, type: 3}
  m_Name: DripCue
  m_EditorClassIdentifier: 
  SequenceMode: 0
  IsLooping: 0
  RandomizePitch: 1
  PitchRange: {x: 0.5, y: 3}
  m_audioClips:
  - {fileID: 8300000, guid: 841dc9cec658cef479469b6ebe3d1a74, type: 3}
